solid OpenSCAD_Model
  facet normal 0.994521 0.104533 0
    outer loop
      vertex 3 0 3.22
      vertex 2.93444 0.623734 0
      vertex 2.93444 0.623734 3.22
    endloop
  endfacet
  facet normal 0.994521 0.104533 0
    outer loop
      vertex 2.93444 0.623734 0
      vertex 3 0 3.22
      vertex 3 0 0
    endloop
  endfacet
  facet normal -0.994521 0.104533 0
    outer loop
      vertex -3 0 0
      vertex -2.93444 0.623734 3.22
      vertex -2.93444 0.623734 0
    endloop
  endfacet
  facet normal -0.994521 0.104533 0
    outer loop
      vertex -2.93444 0.623734 3.22
      vertex -3 0 0
      vertex -3 0 3.22
    endloop
  endfacet
  facet normal 0 1 -0
    outer loop
      vertex 0.313585 2.98357 0
      vertex -0.313585 2.98357 3.22
      vertex 0.313585 2.98357 3.22
    endloop
  endfacet
  facet normal 0 1 0
    outer loop
      vertex -0.313585 2.98357 3.22
      vertex 0.313585 2.98357 0
      vertex -0.313585 2.98357 0
    endloop
  endfacet
  facet normal 0 -1 0
    outer loop
      vertex -0.313585 -2.98357 0
      vertex 0.313585 -2.98357 3.22
      vertex -0.313585 -2.98357 3.22
    endloop
  endfacet
  facet normal 0 -1 -0
    outer loop
      vertex 0.313585 -2.98357 3.22
      vertex -0.313585 -2.98357 0
      vertex 0.313585 -2.98357 0
    endloop
  endfacet
  facet normal 0.587795 0.80901 -0
    outer loop
      vertex 2.00739 2.22943 0
      vertex 1.5 2.59808 3.22
      vertex 2.00739 2.22943 3.22
    endloop
  endfacet
  facet normal 0.587795 0.80901 0
    outer loop
      vertex 1.5 2.59808 3.22
      vertex 2.00739 2.22943 0
      vertex 1.5 2.59808 0
    endloop
  endfacet
  facet normal 0.406732 0.913547 -0
    outer loop
      vertex 1.5 2.59808 0
      vertex 0.927051 2.85317 3.22
      vertex 1.5 2.59808 3.22
    endloop
  endfacet
  facet normal 0.406732 0.913547 0
    outer loop
      vertex 0.927051 2.85317 3.22
      vertex 1.5 2.59808 0
      vertex 0.927051 2.85317 0
    endloop
  endfacet
  facet normal -0.743138 0.669138 0
    outer loop
      vertex -2.42705 1.76336 0
      vertex -2.00739 2.22943 3.22
      vertex -2.00739 2.22943 0
    endloop
  endfacet
  facet normal -0.743138 0.669138 0
    outer loop
      vertex -2.00739 2.22943 3.22
      vertex -2.42705 1.76336 0
      vertex -2.42705 1.76336 3.22
    endloop
  endfacet
  facet normal -0.406732 0.913547 0
    outer loop
      vertex -0.927051 2.85317 0
      vertex -1.5 2.59808 3.22
      vertex -0.927051 2.85317 3.22
    endloop
  endfacet
  facet normal -0.406732 0.913547 0
    outer loop
      vertex -1.5 2.59808 3.22
      vertex -0.927051 2.85317 0
      vertex -1.5 2.59808 0
    endloop
  endfacet
  facet normal 0.866024 0.500003 0
    outer loop
      vertex 2.74064 1.22021 3.22
      vertex 2.42705 1.76336 0
      vertex 2.42705 1.76336 3.22
    endloop
  endfacet
  facet normal 0.866024 0.500003 0
    outer loop
      vertex 2.42705 1.76336 0
      vertex 2.74064 1.22021 3.22
      vertex 2.74064 1.22021 0
    endloop
  endfacet
  facet normal 0.95106 0.309007 0
    outer loop
      vertex 2.93444 0.623734 3.22
      vertex 2.74064 1.22021 0
      vertex 2.74064 1.22021 3.22
    endloop
  endfacet
  facet normal 0.95106 0.309007 0
    outer loop
      vertex 2.74064 1.22021 0
      vertex 2.93444 0.623734 3.22
      vertex 2.93444 0.623734 0
    endloop
  endfacet
  facet normal 0.743138 0.669138 0
    outer loop
      vertex 2.42705 1.76336 3.22
      vertex 2.00739 2.22943 0
      vertex 2.00739 2.22943 3.22
    endloop
  endfacet
  facet normal 0.743138 0.669138 0
    outer loop
      vertex 2.00739 2.22943 0
      vertex 2.42705 1.76336 3.22
      vertex 2.42705 1.76336 0
    endloop
  endfacet
  facet normal 0.207917 0.978146 -0
    outer loop
      vertex 0.927051 2.85317 0
      vertex 0.313585 2.98357 3.22
      vertex 0.927051 2.85317 3.22
    endloop
  endfacet
  facet normal 0.207917 0.978146 0
    outer loop
      vertex 0.313585 2.98357 3.22
      vertex 0.927051 2.85317 0
      vertex 0.313585 2.98357 0
    endloop
  endfacet
  facet normal -0.866024 0.500003 0
    outer loop
      vertex -2.74064 1.22021 0
      vertex -2.42705 1.76336 3.22
      vertex -2.42705 1.76336 0
    endloop
  endfacet
  facet normal -0.866024 0.500003 0
    outer loop
      vertex -2.42705 1.76336 3.22
      vertex -2.74064 1.22021 0
      vertex -2.74064 1.22021 3.22
    endloop
  endfacet
  facet normal -0.95106 0.309007 0
    outer loop
      vertex -2.93444 0.623734 0
      vertex -2.74064 1.22021 3.22
      vertex -2.74064 1.22021 0
    endloop
  endfacet
  facet normal -0.95106 0.309007 0
    outer loop
      vertex -2.74064 1.22021 3.22
      vertex -2.93444 0.623734 0
      vertex -2.93444 0.623734 3.22
    endloop
  endfacet
  facet normal -0.587795 0.80901 0
    outer loop
      vertex -1.5 2.59808 0
      vertex -2.00739 2.22943 3.22
      vertex -1.5 2.59808 3.22
    endloop
  endfacet
  facet normal -0.587795 0.80901 0
    outer loop
      vertex -2.00739 2.22943 3.22
      vertex -1.5 2.59808 0
      vertex -2.00739 2.22943 0
    endloop
  endfacet
  facet normal -0.207917 0.978146 0
    outer loop
      vertex -0.313585 2.98357 0
      vertex -0.927051 2.85317 3.22
      vertex -0.313585 2.98357 3.22
    endloop
  endfacet
  facet normal -0.207917 0.978146 0
    outer loop
      vertex -0.927051 2.85317 3.22
      vertex -0.313585 2.98357 0
      vertex -0.927051 2.85317 0
    endloop
  endfacet
  facet normal 0.994521 -0.104533 0
    outer loop
      vertex 2.93444 -0.623734 3.22
      vertex 3 0 0
      vertex 3 0 3.22
    endloop
  endfacet
  facet normal 0.994521 -0.104533 0
    outer loop
      vertex 3 0 0
      vertex 2.93444 -0.623734 3.22
      vertex 2.93444 -0.623734 0
    endloop
  endfacet
  facet normal 0.207917 -0.978146 0
    outer loop
      vertex 0.313585 -2.98357 0
      vertex 0.927051 -2.85317 3.22
      vertex 0.313585 -2.98357 3.22
    endloop
  endfacet
  facet normal 0.207917 -0.978146 0
    outer loop
      vertex 0.927051 -2.85317 3.22
      vertex 0.313585 -2.98357 0
      vertex 0.927051 -2.85317 0
    endloop
  endfacet
  facet normal 0.866024 -0.500003 0
    outer loop
      vertex 2.42705 -1.76336 3.22
      vertex 2.74064 -1.22021 0
      vertex 2.74064 -1.22021 3.22
    endloop
  endfacet
  facet normal 0.866024 -0.500003 0
    outer loop
      vertex 2.74064 -1.22021 0
      vertex 2.42705 -1.76336 3.22
      vertex 2.42705 -1.76336 0
    endloop
  endfacet
  facet normal 0 0 -1
    outer loop
      vertex 0.599999 0 0
      vertex 3 0 0
      vertex 2.93444 -0.623734 0
    endloop
  endfacet
  facet normal 0 0 -1
    outer loop
      vertex 0.570634 -0.18541 0
      vertex 2.93444 -0.623734 0
      vertex 2.74064 -1.22021 0
    endloop
  endfacet
  facet normal 0 0 -1
    outer loop
      vertex 3 0 0
      vertex 0.599999 0 0
      vertex 2.93444 0.623734 0
    endloop
  endfacet
  facet normal 0 0 -1
    outer loop
      vertex 0.48541 -0.352671 0
      vertex 2.74064 -1.22021 0
      vertex 2.42705 -1.76336 0
    endloop
  endfacet
  facet normal 0 0 -1
    outer loop
      vertex 0.570634 0.18541 0
      vertex 2.93444 0.623734 0
      vertex 0.599999 0 0
    endloop
  endfacet
  facet normal 0 0 -1
    outer loop
      vertex 0.48541 -0.352671 0
      vertex 2.42705 -1.76336 0
      vertex 2.00739 -2.22943 0
    endloop
  endfacet
  facet normal -0 0 -1
    outer loop
      vertex 2.93444 0.623734 0
      vertex 0.570634 0.18541 0
      vertex 2.74064 1.22021 0
    endloop
  endfacet
  facet normal 0 0 -1
    outer loop
      vertex 0.352671 -0.48541 0
      vertex 2.00739 -2.22943 0
      vertex 1.5 -2.59808 0
    endloop
  endfacet
  facet normal 0 0 -1
    outer loop
      vertex 0.48541 0.352671 0
      vertex 2.74064 1.22021 0
      vertex 0.570634 0.18541 0
    endloop
  endfacet
  facet normal 0 0 -1
    outer loop
      vertex 0.18541 -0.570634 0
      vertex 1.5 -2.59808 0
      vertex 0.927051 -2.85317 0
    endloop
  endfacet
  facet normal -0 0 -1
    outer loop
      vertex 2.74064 1.22021 0
      vertex 0.48541 0.352671 0
      vertex 2.42705 1.76336 0
    endloop
  endfacet
  facet normal -0 0 -1
    outer loop
      vertex 2.42705 1.76336 0
      vertex 0.48541 0.352671 0
      vertex 2.00739 2.22943 0
    endloop
  endfacet
  facet normal 0 0 -1
    outer loop
      vertex 2.93444 -0.623734 0
      vertex 0.570634 -0.18541 0
      vertex 0.599999 0 0
    endloop
  endfacet
  facet normal 0 0 -1
    outer loop
      vertex 2.74064 -1.22021 0
      vertex 0.48541 -0.352671 0
      vertex 0.570634 -0.18541 0
    endloop
  endfacet
  facet normal 0 0 -1
    outer loop
      vertex 2.00739 -2.22943 0
      vertex 0.352671 -0.48541 0
      vertex 0.48541 -0.352671 0
    endloop
  endfacet
  facet normal 0 0 -1
    outer loop
      vertex 0.18541 -0.570634 0
      vertex 0.927051 -2.85317 0
      vertex 0.313585 -2.98357 0
    endloop
  endfacet
  facet normal 0 0 -1
    outer loop
      vertex 1.5 -2.59808 0
      vertex 0.18541 -0.570634 0
      vertex 0.352671 -0.48541 0
    endloop
  endfacet
  facet normal 0 0 -1
    outer loop
      vertex 0.313585 -2.98357 0
      vertex 0 -0.599999 0
      vertex 0.18541 -0.570634 0
    endloop
  endfacet
  facet normal 0 0 -1
    outer loop
      vertex -0.313585 -2.98357 0
      vertex 0 -0.599999 0
      vertex 0.313585 -2.98357 0
    endloop
  endfacet
  facet normal -0 0 -1
    outer loop
      vertex 0 -0.599999 0
      vertex -0.313585 -2.98357 0
      vertex -0.18541 -0.570634 0
    endloop
  endfacet
  facet normal 0 0 -1
    outer loop
      vertex -0.927051 -2.85317 0
      vertex -0.18541 -0.570634 0
      vertex -0.313585 -2.98357 0
    endloop
  endfacet
  facet normal 0 0 -1
    outer loop
      vertex -1.5 -2.59808 0
      vertex -0.18541 -0.570634 0
      vertex -0.927051 -2.85317 0
    endloop
  endfacet
  facet normal -0 0 -1
    outer loop
      vertex -0.18541 -0.570634 0
      vertex -1.5 -2.59808 0
      vertex -0.352671 -0.48541 0
    endloop
  endfacet
  facet normal 0 0 -1
    outer loop
      vertex -2.00739 -2.22943 0
      vertex -0.352671 -0.48541 0
      vertex -1.5 -2.59808 0
    endloop
  endfacet
  facet normal -0 0 -1
    outer loop
      vertex -0.352671 -0.48541 0
      vertex -2.00739 -2.22943 0
      vertex -0.48541 -0.352671 0
    endloop
  endfacet
  facet normal 0 0 -1
    outer loop
      vertex 0.352671 0.48541 0
      vertex 2.00739 2.22943 0
      vertex 0.48541 0.352671 0
    endloop
  endfacet
  facet normal -0 0 -1
    outer loop
      vertex 2.00739 2.22943 0
      vertex 0.352671 0.48541 0
      vertex 1.5 2.59808 0
    endloop
  endfacet
  facet normal 0 0 -1
    outer loop
      vertex 0.18541 0.570634 0
      vertex 1.5 2.59808 0
      vertex 0.352671 0.48541 0
    endloop
  endfacet
  facet normal -0 0 -1
    outer loop
      vertex 1.5 2.59808 0
      vertex 0.18541 0.570634 0
      vertex 0.927051 2.85317 0
    endloop
  endfacet
  facet normal -0 0 -1
    outer loop
      vertex 0.927051 2.85317 0
      vertex 0.18541 0.570634 0
      vertex 0.313585 2.98357 0
    endloop
  endfacet
  facet normal 0 0 -1
    outer loop
      vertex 0 0.599999 0
      vertex 0.313585 2.98357 0
      vertex 0.18541 0.570634 0
    endloop
  endfacet
  facet normal 0 0 -1
    outer loop
      vertex -0.313585 2.98357 0
      vertex 0 0.599999 0
      vertex -0.18541 0.570634 0
    endloop
  endfacet
  facet normal 0 0 -1
    outer loop
      vertex 0 0.599999 0
      vertex -0.313585 2.98357 0
      vertex 0.313585 2.98357 0
    endloop
  endfacet
  facet normal 0 0 -1
    outer loop
      vertex -1.5 2.59808 0
      vertex -0.18541 0.570634 0
      vertex -0.352671 0.48541 0
    endloop
  endfacet
  facet normal 0 0 -1
    outer loop
      vertex -2.00739 2.22943 0
      vertex -0.352671 0.48541 0
      vertex -0.48541 0.352671 0
    endloop
  endfacet
  facet normal 0 0 -1
    outer loop
      vertex -2.74064 1.22021 0
      vertex -0.48541 0.352671 0
      vertex -0.570634 0.18541 0
    endloop
  endfacet
  facet normal 0 0 -1
    outer loop
      vertex -2.93444 0.623734 0
      vertex -0.570634 0.18541 0
      vertex -0.599999 0 0
    endloop
  endfacet
  facet normal 0 0 -1
    outer loop
      vertex -2.42705 -1.76336 0
      vertex -0.48541 -0.352671 0
      vertex -2.00739 -2.22943 0
    endloop
  endfacet
  facet normal 0 0 -1
    outer loop
      vertex -0.18541 0.570634 0
      vertex -0.927051 2.85317 0
      vertex -0.313585 2.98357 0
    endloop
  endfacet
  facet normal 0 0 -1
    outer loop
      vertex -2.74064 -1.22021 0
      vertex -0.48541 -0.352671 0
      vertex -2.42705 -1.76336 0
    endloop
  endfacet
  facet normal 0 0 -1
    outer loop
      vertex -0.18541 0.570634 0
      vertex -1.5 2.59808 0
      vertex -0.927051 2.85317 0
    endloop
  endfacet
  facet normal -0 0 -1
    outer loop
      vertex -0.48541 -0.352671 0
      vertex -2.74064 -1.22021 0
      vertex -0.570634 -0.18541 0
    endloop
  endfacet
  facet normal 0 0 -1
    outer loop
      vertex -0.352671 0.48541 0
      vertex -2.00739 2.22943 0
      vertex -1.5 2.59808 0
    endloop
  endfacet
  facet normal 0 0 -1
    outer loop
      vertex -2.93444 -0.623734 0
      vertex -0.570634 -0.18541 0
      vertex -2.74064 -1.22021 0
    endloop
  endfacet
  facet normal 0 0 -1
    outer loop
      vertex -0.48541 0.352671 0
      vertex -2.42705 1.76336 0
      vertex -2.00739 2.22943 0
    endloop
  endfacet
  facet normal -0 0 -1
    outer loop
      vertex -0.570634 -0.18541 0
      vertex -2.93444 -0.623734 0
      vertex -0.599999 0 0
    endloop
  endfacet
  facet normal 0 0 -1
    outer loop
      vertex -0.48541 0.352671 0
      vertex -2.74064 1.22021 0
      vertex -2.42705 1.76336 0
    endloop
  endfacet
  facet normal 0 0 -1
    outer loop
      vertex -3 0 0
      vertex -0.599999 0 0
      vertex -2.93444 -0.623734 0
    endloop
  endfacet
  facet normal 0 0 -1
    outer loop
      vertex -0.570634 0.18541 0
      vertex -2.93444 0.623734 0
      vertex -2.74064 1.22021 0
    endloop
  endfacet
  facet normal 0 0 -1
    outer loop
      vertex -0.599999 0 0
      vertex -3 0 0
      vertex -2.93444 0.623734 0
    endloop
  endfacet
  facet normal 0.587795 -0.80901 0
    outer loop
      vertex 1.5 -2.59808 0
      vertex 2.00739 -2.22943 3.22
      vertex 1.5 -2.59808 3.22
    endloop
  endfacet
  facet normal 0.587795 -0.80901 0
    outer loop
      vertex 2.00739 -2.22943 3.22
      vertex 1.5 -2.59808 0
      vertex 2.00739 -2.22943 0
    endloop
  endfacet
  facet normal 0.406732 -0.913547 0
    outer loop
      vertex 0.927051 -2.85317 0
      vertex 1.5 -2.59808 3.22
      vertex 0.927051 -2.85317 3.22
    endloop
  endfacet
  facet normal 0.406732 -0.913547 0
    outer loop
      vertex 1.5 -2.59808 3.22
      vertex 0.927051 -2.85317 0
      vertex 1.5 -2.59808 0
    endloop
  endfacet
  facet normal 0.95106 -0.309007 0
    outer loop
      vertex 2.74064 -1.22021 3.22
      vertex 2.93444 -0.623734 0
      vertex 2.93444 -0.623734 3.22
    endloop
  endfacet
  facet normal 0.95106 -0.309007 0
    outer loop
      vertex 2.93444 -0.623734 0
      vertex 2.74064 -1.22021 3.22
      vertex 2.74064 -1.22021 0
    endloop
  endfacet
  facet normal -0.743138 -0.669138 0
    outer loop
      vertex -2.00739 -2.22943 0
      vertex -2.42705 -1.76336 3.22
      vertex -2.42705 -1.76336 0
    endloop
  endfacet
  facet normal -0.743138 -0.669138 0
    outer loop
      vertex -2.42705 -1.76336 3.22
      vertex -2.00739 -2.22943 0
      vertex -2.00739 -2.22943 3.22
    endloop
  endfacet
  facet normal -0.866024 -0.500003 0
    outer loop
      vertex -2.42705 -1.76336 0
      vertex -2.74064 -1.22021 3.22
      vertex -2.74064 -1.22021 0
    endloop
  endfacet
  facet normal -0.866024 -0.500003 0
    outer loop
      vertex -2.74064 -1.22021 3.22
      vertex -2.42705 -1.76336 0
      vertex -2.42705 -1.76336 3.22
    endloop
  endfacet
  facet normal -0.95106 -0.309007 0
    outer loop
      vertex -2.74064 -1.22021 0
      vertex -2.93444 -0.623734 3.22
      vertex -2.93444 -0.623734 0
    endloop
  endfacet
  facet normal -0.95106 -0.309007 0
    outer loop
      vertex -2.93444 -0.623734 3.22
      vertex -2.74064 -1.22021 0
      vertex -2.74064 -1.22021 3.22
    endloop
  endfacet
  facet normal -0.994521 -0.104533 0
    outer loop
      vertex -2.93444 -0.623734 0
      vertex -3 0 3.22
      vertex -3 0 0
    endloop
  endfacet
  facet normal -0.994521 -0.104533 0
    outer loop
      vertex -3 0 3.22
      vertex -2.93444 -0.623734 0
      vertex -2.93444 -0.623734 3.22
    endloop
  endfacet
  facet normal 0.743138 -0.669138 0
    outer loop
      vertex 2.00739 -2.22943 3.22
      vertex 2.42705 -1.76336 0
      vertex 2.42705 -1.76336 3.22
    endloop
  endfacet
  facet normal 0.743138 -0.669138 0
    outer loop
      vertex 2.42705 -1.76336 0
      vertex 2.00739 -2.22943 3.22
      vertex 2.00739 -2.22943 0
    endloop
  endfacet
  facet normal -0.587795 -0.80901 0
    outer loop
      vertex -2.00739 -2.22943 0
      vertex -1.5 -2.59808 3.22
      vertex -2.00739 -2.22943 3.22
    endloop
  endfacet
  facet normal -0.587795 -0.80901 -0
    outer loop
      vertex -1.5 -2.59808 3.22
      vertex -2.00739 -2.22943 0
      vertex -1.5 -2.59808 0
    endloop
  endfacet
  facet normal -0.406732 -0.913547 0
    outer loop
      vertex -1.5 -2.59808 0
      vertex -0.927051 -2.85317 3.22
      vertex -1.5 -2.59808 3.22
    endloop
  endfacet
  facet normal -0.406732 -0.913547 -0
    outer loop
      vertex -0.927051 -2.85317 3.22
      vertex -1.5 -2.59808 0
      vertex -0.927051 -2.85317 0
    endloop
  endfacet
  facet normal -0.207917 -0.978146 0
    outer loop
      vertex -0.927051 -2.85317 0
      vertex -0.313585 -2.98357 3.22
      vertex -0.927051 -2.85317 3.22
    endloop
  endfacet
  facet normal -0.207917 -0.978146 -0
    outer loop
      vertex -0.313585 -2.98357 3.22
      vertex -0.927051 -2.85317 0
      vertex -0.313585 -2.98357 0
    endloop
  endfacet
  facet normal 0.994522 0.104529 0
    outer loop
      vertex 4 0 6.22
      vertex 3.91259 0.831646 3.22
      vertex 3.91259 0.831646 6.22
    endloop
  endfacet
  facet normal 0.994522 0.104529 0
    outer loop
      vertex 3.91259 0.831646 3.22
      vertex 4 0 6.22
      vertex 4 0 3.22
    endloop
  endfacet
  facet normal -0.994522 0.104529 0
    outer loop
      vertex -4 0 3.22
      vertex -3.91259 0.831646 6.22
      vertex -3.91259 0.831646 3.22
    endloop
  endfacet
  facet normal -0.994522 0.104529 0
    outer loop
      vertex -3.91259 0.831646 6.22
      vertex -4 0 3.22
      vertex -4 0 6.22
    endloop
  endfacet
  facet normal 0 1 -0
    outer loop
      vertex 0.418114 3.97809 3.22
      vertex -0.418114 3.97809 3.72
      vertex 0.418114 3.97809 3.72
    endloop
  endfacet
  facet normal 0 1 0
    outer loop
      vertex -0.418114 3.97809 3.72
      vertex 0.418114 3.97809 3.22
      vertex -0.418114 3.97809 3.22
    endloop
  endfacet
  facet normal 0 1 -0
    outer loop
      vertex 0.418114 3.97809 4.72
      vertex -0.418114 3.97809 6.22
      vertex 0.418114 3.97809 6.22
    endloop
  endfacet
  facet normal 0 1 0
    outer loop
      vertex -0.418114 3.97809 6.22
      vertex 0.418114 3.97809 4.72
      vertex -0.418114 3.97809 4.72
    endloop
  endfacet
  facet normal 0 -1 0
    outer loop
      vertex -0.418114 -3.97809 3.22
      vertex 0.418114 -3.97809 6.22
      vertex -0.418114 -3.97809 6.22
    endloop
  endfacet
  facet normal 0 -1 -0
    outer loop
      vertex 0.418114 -3.97809 6.22
      vertex -0.418114 -3.97809 3.22
      vertex 0.418114 -3.97809 3.22
    endloop
  endfacet
  facet normal 0.743143 0.669133 0
    outer loop
      vertex 3.23607 2.35114 6.22
      vertex 2.67652 2.97258 3.22
      vertex 2.67652 2.97258 6.22
    endloop
  endfacet
  facet normal 0.743143 0.669133 0
    outer loop
      vertex 2.67652 2.97258 3.22
      vertex 3.23607 2.35114 6.22
      vertex 3.23607 2.35114 3.22
    endloop
  endfacet
  facet normal -0.743143 0.669133 0
    outer loop
      vertex -3.23607 2.35114 3.22
      vertex -2.67652 2.97258 6.22
      vertex -2.67652 2.97258 3.22
    endloop
  endfacet
  facet normal -0.743143 0.669133 0
    outer loop
      vertex -2.67652 2.97258 6.22
      vertex -3.23607 2.35114 3.22
      vertex -3.23607 2.35114 6.22
    endloop
  endfacet
  facet normal -0.866026 0.499999 0
    outer loop
      vertex -3.65418 1.62695 3.22
      vertex -3.23607 2.35114 6.22
      vertex -3.23607 2.35114 3.22
    endloop
  endfacet
  facet normal -0.866026 0.499999 0
    outer loop
      vertex -3.23607 2.35114 6.22
      vertex -3.65418 1.62695 3.22
      vertex -3.65418 1.62695 6.22
    endloop
  endfacet
  facet normal -0.406743 0.913543 0
    outer loop
      vertex -1.23607 3.80423 3.22
      vertex -2 3.4641 6.22
      vertex -1.23607 3.80423 6.22
    endloop
  endfacet
  facet normal -0.406743 0.913543 0
    outer loop
      vertex -2 3.4641 6.22
      vertex -1.23607 3.80423 3.22
      vertex -2 3.4641 3.22
    endloop
  endfacet
  facet normal 0.866026 0.499999 0
    outer loop
      vertex 3.65418 1.62695 6.22
      vertex 3.23607 2.35114 3.22
      vertex 3.23607 2.35114 6.22
    endloop
  endfacet
  facet normal 0.866026 0.499999 0
    outer loop
      vertex 3.23607 2.35114 3.22
      vertex 3.65418 1.62695 6.22
      vertex 3.65418 1.62695 3.22
    endloop
  endfacet
  facet normal 0.951056 0.309017 0
    outer loop
      vertex 3.91259 0.831646 6.22
      vertex 3.65418 1.62695 3.22
      vertex 3.65418 1.62695 6.22
    endloop
  endfacet
  facet normal 0.951056 0.309017 0
    outer loop
      vertex 3.65418 1.62695 3.22
      vertex 3.91259 0.831646 6.22
      vertex 3.91259 0.831646 3.22
    endloop
  endfacet
  facet normal 0.406743 0.913543 -0
    outer loop
      vertex 2 3.4641 3.22
      vertex 1.23607 3.80423 6.22
      vertex 2 3.4641 6.22
    endloop
  endfacet
  facet normal 0.406743 0.913543 0
    outer loop
      vertex 1.23607 3.80423 6.22
      vertex 2 3.4641 3.22
      vertex 1.23607 3.80423 3.22
    endloop
  endfacet
  facet normal 0.207909 0.978148 -5.00475e-06
    outer loop
      vertex 1.23607 3.80423 6.22
      vertex 1 3.8544 4.72
      vertex 0.418114 3.97809 6.22
    endloop
  endfacet
  facet normal 0.207879 0.978155 -0
    outer loop
      vertex 1.23607 3.80423 3.22
      vertex 1 3.8544 4.72
      vertex 1.23607 3.80423 6.22
    endloop
  endfacet
  facet normal 0.207879 0.978155 0
    outer loop
      vertex 1 3.8544 4.72
      vertex 1.23607 3.80423 3.22
      vertex 1 3.8544 3.72
    endloop
  endfacet
  facet normal 0.207909 0.978148 1.50143e-05
    outer loop
      vertex 0.418114 3.97809 3.22
      vertex 1 3.8544 3.72
      vertex 1.23607 3.80423 3.22
    endloop
  endfacet
  facet normal 0.207922 0.978145 0
    outer loop
      vertex 1 3.8544 3.72
      vertex 0.418114 3.97809 3.22
      vertex 0.418114 3.97809 3.72
    endloop
  endfacet
  facet normal 0.207922 0.978145 0
    outer loop
      vertex 0.418114 3.97809 6.22
      vertex 1 3.8544 4.72
      vertex 0.418114 3.97809 4.72
    endloop
  endfacet
  facet normal 0.587785 0.809017 -0
    outer loop
      vertex 2.67652 2.97258 3.22
      vertex 2 3.4641 6.22
      vertex 2.67652 2.97258 6.22
    endloop
  endfacet
  facet normal 0.587785 0.809017 0
    outer loop
      vertex 2 3.4641 6.22
      vertex 2.67652 2.97258 3.22
      vertex 2 3.4641 3.22
    endloop
  endfacet
  facet normal -0.951056 0.309017 0
    outer loop
      vertex -3.91259 0.831646 3.22
      vertex -3.65418 1.62695 6.22
      vertex -3.65418 1.62695 3.22
    endloop
  endfacet
  facet normal -0.951056 0.309017 0
    outer loop
      vertex -3.65418 1.62695 6.22
      vertex -3.91259 0.831646 3.22
      vertex -3.91259 0.831646 6.22
    endloop
  endfacet
  facet normal 0 0 1
    outer loop
      vertex 0.599999 0 6.22
      vertex 4 0 6.22
      vertex 3.91259 0.831646 6.22
    endloop
  endfacet
  facet normal 0 0 1
    outer loop
      vertex 0.570634 0.18541 6.22
      vertex 3.91259 0.831646 6.22
      vertex 3.65418 1.62695 6.22
    endloop
  endfacet
  facet normal 0 0 1
    outer loop
      vertex 4 0 6.22
      vertex 0.599999 0 6.22
      vertex 3.91259 -0.831646 6.22
    endloop
  endfacet
  facet normal 0 0 1
    outer loop
      vertex 0.48541 0.352671 6.22
      vertex 3.65418 1.62695 6.22
      vertex 3.23607 2.35114 6.22
    endloop
  endfacet
  facet normal -0 0 1
    outer loop
      vertex 0.570634 -0.18541 6.22
      vertex 3.91259 -0.831646 6.22
      vertex 0.599999 0 6.22
    endloop
  endfacet
  facet normal 0 0 1
    outer loop
      vertex 0.48541 0.352671 6.22
      vertex 3.23607 2.35114 6.22
      vertex 2.67652 2.97258 6.22
    endloop
  endfacet
  facet normal 0 0 1
    outer loop
      vertex 3.91259 -0.831646 6.22
      vertex 0.570634 -0.18541 6.22
      vertex 3.65418 -1.62695 6.22
    endloop
  endfacet
  facet normal 0 0 1
    outer loop
      vertex 0.352671 0.48541 6.22
      vertex 2.67652 2.97258 6.22
      vertex 2 3.4641 6.22
    endloop
  endfacet
  facet normal -0 0 1
    outer loop
      vertex 0.48541 -0.352671 6.22
      vertex 3.65418 -1.62695 6.22
      vertex 0.570634 -0.18541 6.22
    endloop
  endfacet
  facet normal 0 0 1
    outer loop
      vertex 0.18541 0.570634 6.22
      vertex 2 3.4641 6.22
      vertex 1.23607 3.80423 6.22
    endloop
  endfacet
  facet normal 0 0 1
    outer loop
      vertex 3.65418 -1.62695 6.22
      vertex 0.48541 -0.352671 6.22
      vertex 3.23607 -2.35114 6.22
    endloop
  endfacet
  facet normal 0 0 1
    outer loop
      vertex 3.23607 -2.35114 6.22
      vertex 0.48541 -0.352671 6.22
      vertex 2.67652 -2.97258 6.22
    endloop
  endfacet
  facet normal 0 0 1
    outer loop
      vertex 3.91259 0.831646 6.22
      vertex 0.570634 0.18541 6.22
      vertex 0.599999 0 6.22
    endloop
  endfacet
  facet normal 0 0 1
    outer loop
      vertex 3.65418 1.62695 6.22
      vertex 0.48541 0.352671 6.22
      vertex 0.570634 0.18541 6.22
    endloop
  endfacet
  facet normal 0 0 1
    outer loop
      vertex 0.18541 0.570634 6.22
      vertex 1.23607 3.80423 6.22
      vertex 0.418114 3.97809 6.22
    endloop
  endfacet
  facet normal 0 0 1
    outer loop
      vertex 2.67652 2.97258 6.22
      vertex 0.352671 0.48541 6.22
      vertex 0.48541 0.352671 6.22
    endloop
  endfacet
  facet normal 0 0 1
    outer loop
      vertex 2 3.4641 6.22
      vertex 0.18541 0.570634 6.22
      vertex 0.352671 0.48541 6.22
    endloop
  endfacet
  facet normal 0 0 1
    outer loop
      vertex 0.418114 3.97809 6.22
      vertex 0 0.599999 6.22
      vertex 0.18541 0.570634 6.22
    endloop
  endfacet
  facet normal -0 0 1
    outer loop
      vertex -0.418114 3.97809 6.22
      vertex 0 0.599999 6.22
      vertex 0.418114 3.97809 6.22
    endloop
  endfacet
  facet normal 0 0 1
    outer loop
      vertex 0 0.599999 6.22
      vertex -0.418114 3.97809 6.22
      vertex -0.18541 0.570634 6.22
    endloop
  endfacet
  facet normal -0 0 1
    outer loop
      vertex -1.23607 3.80423 6.22
      vertex -0.18541 0.570634 6.22
      vertex -0.418114 3.97809 6.22
    endloop
  endfacet
  facet normal -0 0 1
    outer loop
      vertex -2 3.4641 6.22
      vertex -0.18541 0.570634 6.22
      vertex -1.23607 3.80423 6.22
    endloop
  endfacet
  facet normal 0 0 1
    outer loop
      vertex -0.18541 0.570634 6.22
      vertex -2 3.4641 6.22
      vertex -0.352671 0.48541 6.22
    endloop
  endfacet
  facet normal -0 0 1
    outer loop
      vertex -2.67652 2.97258 6.22
      vertex -0.352671 0.48541 6.22
      vertex -2 3.4641 6.22
    endloop
  endfacet
  facet normal 0 0 1
    outer loop
      vertex -0.352671 0.48541 6.22
      vertex -2.67652 2.97258 6.22
      vertex -0.48541 0.352671 6.22
    endloop
  endfacet
  facet normal -0 0 1
    outer loop
      vertex 0.352671 -0.48541 6.22
      vertex 2.67652 -2.97258 6.22
      vertex 0.48541 -0.352671 6.22
    endloop
  endfacet
  facet normal 0 0 1
    outer loop
      vertex 2.67652 -2.97258 6.22
      vertex 0.352671 -0.48541 6.22
      vertex 2 -3.4641 6.22
    endloop
  endfacet
  facet normal -0 0 1
    outer loop
      vertex 0.18541 -0.570634 6.22
      vertex 2 -3.4641 6.22
      vertex 0.352671 -0.48541 6.22
    endloop
  endfacet
  facet normal 0 0 1
    outer loop
      vertex 2 -3.4641 6.22
      vertex 0.18541 -0.570634 6.22
      vertex 1.23607 -3.80423 6.22
    endloop
  endfacet
  facet normal 0 0 1
    outer loop
      vertex 1.23607 -3.80423 6.22
      vertex 0.18541 -0.570634 6.22
      vertex 0.418114 -3.97809 6.22
    endloop
  endfacet
  facet normal -0 0 1
    outer loop
      vertex 0 -0.599999 6.22
      vertex 0.418114 -3.97809 6.22
      vertex 0.18541 -0.570634 6.22
    endloop
  endfacet
  facet normal 0 0 1
    outer loop
      vertex -0.418114 -3.97809 6.22
      vertex 0 -0.599999 6.22
      vertex -0.18541 -0.570634 6.22
    endloop
  endfacet
  facet normal 0 0 1
    outer loop
      vertex -2 -3.4641 6.22
      vertex -0.18541 -0.570634 6.22
      vertex -0.352671 -0.48541 6.22
    endloop
  endfacet
  facet normal 0 0 1
    outer loop
      vertex 0 -0.599999 6.22
      vertex -0.418114 -3.97809 6.22
      vertex 0.418114 -3.97809 6.22
    endloop
  endfacet
  facet normal 0 0 1
    outer loop
      vertex -2.67652 -2.97258 6.22
      vertex -0.352671 -0.48541 6.22
      vertex -0.48541 -0.352671 6.22
    endloop
  endfacet
  facet normal 0 0 1
    outer loop
      vertex -3.65418 -1.62695 6.22
      vertex -0.48541 -0.352671 6.22
      vertex -0.570634 -0.18541 6.22
    endloop
  endfacet
  facet normal 0 0 1
    outer loop
      vertex -3.91259 -0.831646 6.22
      vertex -0.570634 -0.18541 6.22
      vertex -0.599999 0 6.22
    endloop
  endfacet
  facet normal -0 0 1
    outer loop
      vertex -3.23607 2.35114 6.22
      vertex -0.48541 0.352671 6.22
      vertex -2.67652 2.97258 6.22
    endloop
  endfacet
  facet normal 0 0 1
    outer loop
      vertex -0.18541 -0.570634 6.22
      vertex -1.23607 -3.80423 6.22
      vertex -0.418114 -3.97809 6.22
    endloop
  endfacet
  facet normal -0 0 1
    outer loop
      vertex -3.65418 1.62695 6.22
      vertex -0.48541 0.352671 6.22
      vertex -3.23607 2.35114 6.22
    endloop
  endfacet
  facet normal 0 0 1
    outer loop
      vertex -0.18541 -0.570634 6.22
      vertex -2 -3.4641 6.22
      vertex -1.23607 -3.80423 6.22
    endloop
  endfacet
  facet normal 0 0 1
    outer loop
      vertex -0.48541 0.352671 6.22
      vertex -3.65418 1.62695 6.22
      vertex -0.570634 0.18541 6.22
    endloop
  endfacet
  facet normal 0 0 1
    outer loop
      vertex -0.352671 -0.48541 6.22
      vertex -2.67652 -2.97258 6.22
      vertex -2 -3.4641 6.22
    endloop
  endfacet
  facet normal -0 0 1
    outer loop
      vertex -3.91259 0.831646 6.22
      vertex -0.570634 0.18541 6.22
      vertex -3.65418 1.62695 6.22
    endloop
  endfacet
  facet normal 0 0 1
    outer loop
      vertex -0.48541 -0.352671 6.22
      vertex -3.23607 -2.35114 6.22
      vertex -2.67652 -2.97258 6.22
    endloop
  endfacet
  facet normal 0 0 1
    outer loop
      vertex -0.570634 0.18541 6.22
      vertex -3.91259 0.831646 6.22
      vertex -0.599999 0 6.22
    endloop
  endfacet
  facet normal 0 0 1
    outer loop
      vertex -0.48541 -0.352671 6.22
      vertex -3.65418 -1.62695 6.22
      vertex -3.23607 -2.35114 6.22
    endloop
  endfacet
  facet normal 0 0 1
    outer loop
      vertex -4 0 6.22
      vertex -0.599999 0 6.22
      vertex -3.91259 0.831646 6.22
    endloop
  endfacet
  facet normal 0 0 1
    outer loop
      vertex -0.570634 -0.18541 6.22
      vertex -3.91259 -0.831646 6.22
      vertex -3.65418 -1.62695 6.22
    endloop
  endfacet
  facet normal 0 0 1
    outer loop
      vertex -0.599999 0 6.22
      vertex -4 0 6.22
      vertex -3.91259 -0.831646 6.22
    endloop
  endfacet
  facet normal -0.587785 0.809017 0
    outer loop
      vertex -2 3.4641 3.22
      vertex -2.67652 2.97258 6.22
      vertex -2 3.4641 6.22
    endloop
  endfacet
  facet normal -0.587785 0.809017 0
    outer loop
      vertex -2.67652 2.97258 6.22
      vertex -2 3.4641 3.22
      vertex -2.67652 2.97258 3.22
    endloop
  endfacet
  facet normal -0.207922 0.978145 0
    outer loop
      vertex -0.418114 3.97809 3.72
      vertex -0.418114 3.97809 3.22
      vertex -1 3.8544 3.72
    endloop
  endfacet
  facet normal -0.207922 0.978145 0
    outer loop
      vertex -1 3.8544 4.72
      vertex -0.418114 3.97809 6.22
      vertex -0.418114 3.97809 4.72
    endloop
  endfacet
  facet normal -0.207909 0.978148 -5.00475e-06
    outer loop
      vertex -0.418114 3.97809 6.22
      vertex -1 3.8544 4.72
      vertex -1.23607 3.80423 6.22
    endloop
  endfacet
  facet normal -0.207879 0.978155 0
    outer loop
      vertex -1.23607 3.80423 3.22
      vertex -1 3.8544 4.72
      vertex -1 3.8544 3.72
    endloop
  endfacet
  facet normal -0.207879 0.978155 0
    outer loop
      vertex -1 3.8544 4.72
      vertex -1.23607 3.80423 3.22
      vertex -1.23607 3.80423 6.22
    endloop
  endfacet
  facet normal -0.207909 0.978148 1.50143e-05
    outer loop
      vertex -1.23607 3.80423 3.22
      vertex -1 3.8544 3.72
      vertex -0.418114 3.97809 3.22
    endloop
  endfacet
  facet normal 0.994522 -0.104529 0
    outer loop
      vertex 3.91259 -0.831646 6.22
      vertex 4 0 3.22
      vertex 4 0 6.22
    endloop
  endfacet
  facet normal 0.994522 -0.104529 0
    outer loop
      vertex 4 0 3.22
      vertex 3.91259 -0.831646 6.22
      vertex 3.91259 -0.831646 3.22
    endloop
  endfacet
  facet normal 0 0 -1
    outer loop
      vertex 3 0 3.22
      vertex 4 0 3.22
      vertex 3.91259 -0.831646 3.22
    endloop
  endfacet
  facet normal 0 0 -1
    outer loop
      vertex 2.93444 -0.623734 3.22
      vertex 3.91259 -0.831646 3.22
      vertex 3.65418 -1.62695 3.22
    endloop
  endfacet
  facet normal 0 0 -1
    outer loop
      vertex 4 0 3.22
      vertex 3 0 3.22
      vertex 3.91259 0.831646 3.22
    endloop
  endfacet
  facet normal 0 0 -1
    outer loop
      vertex 2.74064 -1.22021 3.22
      vertex 3.65418 -1.62695 3.22
      vertex 3.23607 -2.35114 3.22
    endloop
  endfacet
  facet normal 0 0 -1
    outer loop
      vertex 2.93444 0.623734 3.22
      vertex 3.91259 0.831646 3.22
      vertex 3 0 3.22
    endloop
  endfacet
  facet normal -0 0 -1
    outer loop
      vertex 3.91259 0.831646 3.22
      vertex 2.93444 0.623734 3.22
      vertex 3.65418 1.62695 3.22
    endloop
  endfacet
  facet normal 0 0 -1
    outer loop
      vertex 3.91259 -0.831646 3.22
      vertex 2.93444 -0.623734 3.22
      vertex 3 0 3.22
    endloop
  endfacet
  facet normal 0 0 -1
    outer loop
      vertex 3.65418 -1.62695 3.22
      vertex 2.74064 -1.22021 3.22
      vertex 2.93444 -0.623734 3.22
    endloop
  endfacet
  facet normal 0 0 -1
    outer loop
      vertex 2.42705 -1.76336 3.22
      vertex 3.23607 -2.35114 3.22
      vertex 2.67652 -2.97258 3.22
    endloop
  endfacet
  facet normal 0 0 -1
    outer loop
      vertex 3.23607 -2.35114 3.22
      vertex 2.42705 -1.76336 3.22
      vertex 2.74064 -1.22021 3.22
    endloop
  endfacet
  facet normal 0 0 -1
    outer loop
      vertex 2.67652 -2.97258 3.22
      vertex 2.00739 -2.22943 3.22
      vertex 2.42705 -1.76336 3.22
    endloop
  endfacet
  facet normal 0 0 -1
    outer loop
      vertex 2 -3.4641 3.22
      vertex 2.00739 -2.22943 3.22
      vertex 2.67652 -2.97258 3.22
    endloop
  endfacet
  facet normal 0 0 -1
    outer loop
      vertex 2 -3.4641 3.22
      vertex 1.5 -2.59808 3.22
      vertex 2.00739 -2.22943 3.22
    endloop
  endfacet
  facet normal 0 0 -1
    outer loop
      vertex 1.23607 -3.80423 3.22
      vertex 1.5 -2.59808 3.22
      vertex 2 -3.4641 3.22
    endloop
  endfacet
  facet normal 0 0 -1
    outer loop
      vertex 1.23607 -3.80423 3.22
      vertex 0.927051 -2.85317 3.22
      vertex 1.5 -2.59808 3.22
    endloop
  endfacet
  facet normal 0 0 -1
    outer loop
      vertex 0.418114 -3.97809 3.22
      vertex 0.927051 -2.85317 3.22
      vertex 1.23607 -3.80423 3.22
    endloop
  endfacet
  facet normal 0 0 -1
    outer loop
      vertex 0.418114 -3.97809 3.22
      vertex 0.313585 -2.98357 3.22
      vertex 0.927051 -2.85317 3.22
    endloop
  endfacet
  facet normal 0 0 -1
    outer loop
      vertex 0.418114 -3.97809 3.22
      vertex -0.313585 -2.98357 3.22
      vertex 0.313585 -2.98357 3.22
    endloop
  endfacet
  facet normal 0 0 -1
    outer loop
      vertex -0.418114 -3.97809 3.22
      vertex -0.313585 -2.98357 3.22
      vertex 0.418114 -3.97809 3.22
    endloop
  endfacet
  facet normal 0 0 -1
    outer loop
      vertex -0.418114 -3.97809 3.22
      vertex -0.927051 -2.85317 3.22
      vertex -0.313585 -2.98357 3.22
    endloop
  endfacet
  facet normal 0 0 -1
    outer loop
      vertex -1.23607 -3.80423 3.22
      vertex -0.927051 -2.85317 3.22
      vertex -0.418114 -3.97809 3.22
    endloop
  endfacet
  facet normal 0 0 -1
    outer loop
      vertex -1.23607 -3.80423 3.22
      vertex -1.5 -2.59808 3.22
      vertex -0.927051 -2.85317 3.22
    endloop
  endfacet
  facet normal 0 0 -1
    outer loop
      vertex -2 -3.4641 3.22
      vertex -1.5 -2.59808 3.22
      vertex -1.23607 -3.80423 3.22
    endloop
  endfacet
  facet normal 0 0 -1
    outer loop
      vertex -2 -3.4641 3.22
      vertex -2.00739 -2.22943 3.22
      vertex -1.5 -2.59808 3.22
    endloop
  endfacet
  facet normal 0 0 -1
    outer loop
      vertex -2.67652 -2.97258 3.22
      vertex -2.00739 -2.22943 3.22
      vertex -2 -3.4641 3.22
    endloop
  endfacet
  facet normal -0 0 -1
    outer loop
      vertex -2.00739 -2.22943 3.22
      vertex -2.67652 -2.97258 3.22
      vertex -2.42705 -1.76336 3.22
    endloop
  endfacet
  facet normal 0 0 -1
    outer loop
      vertex -3.23607 -2.35114 3.22
      vertex -2.42705 -1.76336 3.22
      vertex -2.67652 -2.97258 3.22
    endloop
  endfacet
  facet normal -0 0 -1
    outer loop
      vertex -2.42705 -1.76336 3.22
      vertex -3.23607 -2.35114 3.22
      vertex -2.74064 -1.22021 3.22
    endloop
  endfacet
  facet normal -0 0 -1
    outer loop
      vertex -2.74064 -1.22021 3.22
      vertex -3.65418 -1.62695 3.22
      vertex -2.93444 -0.623734 3.22
    endloop
  endfacet
  facet normal 0 0 -1
    outer loop
      vertex -3.65418 -1.62695 3.22
      vertex -2.74064 -1.22021 3.22
      vertex -3.23607 -2.35114 3.22
    endloop
  endfacet
  facet normal 0 0 -1
    outer loop
      vertex 2.74064 1.22021 3.22
      vertex 3.65418 1.62695 3.22
      vertex 2.93444 0.623734 3.22
    endloop
  endfacet
  facet normal -0 0 -1
    outer loop
      vertex 3.65418 1.62695 3.22
      vertex 2.74064 1.22021 3.22
      vertex 3.23607 2.35114 3.22
    endloop
  endfacet
  facet normal 0 0 -1
    outer loop
      vertex 2.42705 1.76336 3.22
      vertex 3.23607 2.35114 3.22
      vertex 2.74064 1.22021 3.22
    endloop
  endfacet
  facet normal -0 0 -1
    outer loop
      vertex 3.23607 2.35114 3.22
      vertex 2.42705 1.76336 3.22
      vertex 2.67652 2.97258 3.22
    endloop
  endfacet
  facet normal 0 0 -1
    outer loop
      vertex 2.00739 2.22943 3.22
      vertex 2.67652 2.97258 3.22
      vertex 2.42705 1.76336 3.22
    endloop
  endfacet
  facet normal 0 0 -1
    outer loop
      vertex 2.00739 2.22943 3.22
      vertex 2 3.4641 3.22
      vertex 2.67652 2.97258 3.22
    endloop
  endfacet
  facet normal 0 0 -1
    outer loop
      vertex 1.5 2.59808 3.22
      vertex 2 3.4641 3.22
      vertex 2.00739 2.22943 3.22
    endloop
  endfacet
  facet normal 0 0 -1
    outer loop
      vertex 1.5 2.59808 3.22
      vertex 1.23607 3.80423 3.22
      vertex 2 3.4641 3.22
    endloop
  endfacet
  facet normal 0 0 -1
    outer loop
      vertex 0.927051 2.85317 3.22
      vertex 1.23607 3.80423 3.22
      vertex 1.5 2.59808 3.22
    endloop
  endfacet
  facet normal 0 0 -1
    outer loop
      vertex 0.927051 2.85317 3.22
      vertex 0.418114 3.97809 3.22
      vertex 1.23607 3.80423 3.22
    endloop
  endfacet
  facet normal 0 0 -1
    outer loop
      vertex 0.313585 2.98357 3.22
      vertex 0.418114 3.97809 3.22
      vertex 0.927051 2.85317 3.22
    endloop
  endfacet
  facet normal 0 0 -1
    outer loop
      vertex -0.313585 2.98357 3.22
      vertex 0.418114 3.97809 3.22
      vertex 0.313585 2.98357 3.22
    endloop
  endfacet
  facet normal 0 0 -1
    outer loop
      vertex -0.313585 2.98357 3.22
      vertex -0.418114 3.97809 3.22
      vertex 0.418114 3.97809 3.22
    endloop
  endfacet
  facet normal 0 0 -1
    outer loop
      vertex -0.927051 2.85317 3.22
      vertex -0.418114 3.97809 3.22
      vertex -0.313585 2.98357 3.22
    endloop
  endfacet
  facet normal 0 0 -1
    outer loop
      vertex -0.927051 2.85317 3.22
      vertex -1.23607 3.80423 3.22
      vertex -0.418114 3.97809 3.22
    endloop
  endfacet
  facet normal 0 0 -1
    outer loop
      vertex -1.5 2.59808 3.22
      vertex -1.23607 3.80423 3.22
      vertex -0.927051 2.85317 3.22
    endloop
  endfacet
  facet normal 0 0 -1
    outer loop
      vertex -1.5 2.59808 3.22
      vertex -2 3.4641 3.22
      vertex -1.23607 3.80423 3.22
    endloop
  endfacet
  facet normal 0 0 -1
    outer loop
      vertex -2.00739 2.22943 3.22
      vertex -2 3.4641 3.22
      vertex -1.5 2.59808 3.22
    endloop
  endfacet
  facet normal 0 0 -1
    outer loop
      vertex -2.67652 2.97258 3.22
      vertex -2.00739 2.22943 3.22
      vertex -2.42705 1.76336 3.22
    endloop
  endfacet
  facet normal 0 0 -1
    outer loop
      vertex -2.00739 2.22943 3.22
      vertex -2.67652 2.97258 3.22
      vertex -2 3.4641 3.22
    endloop
  endfacet
  facet normal 0 0 -1
    outer loop
      vertex -3.23607 2.35114 3.22
      vertex -2.42705 1.76336 3.22
      vertex -2.74064 1.22021 3.22
    endloop
  endfacet
  facet normal 0 0 -1
    outer loop
      vertex -3.65418 1.62695 3.22
      vertex -2.74064 1.22021 3.22
      vertex -2.93444 0.623734 3.22
    endloop
  endfacet
  facet normal 0 0 -1
    outer loop
      vertex -2.42705 1.76336 3.22
      vertex -3.23607 2.35114 3.22
      vertex -2.67652 2.97258 3.22
    endloop
  endfacet
  facet normal 0 0 -1
    outer loop
      vertex -3.91259 0.831646 3.22
      vertex -2.93444 0.623734 3.22
      vertex -3 0 3.22
    endloop
  endfacet
  facet normal 0 0 -1
    outer loop
      vertex -3.91259 -0.831646 3.22
      vertex -2.93444 -0.623734 3.22
      vertex -3.65418 -1.62695 3.22
    endloop
  endfacet
  facet normal -0 0 -1
    outer loop
      vertex -2.93444 -0.623734 3.22
      vertex -3.91259 -0.831646 3.22
      vertex -3 0 3.22
    endloop
  endfacet
  facet normal 0 0 -1
    outer loop
      vertex -2.74064 1.22021 3.22
      vertex -3.65418 1.62695 3.22
      vertex -3.23607 2.35114 3.22
    endloop
  endfacet
  facet normal 0 0 -1
    outer loop
      vertex -4 0 3.22
      vertex -3 0 3.22
      vertex -3.91259 -0.831646 3.22
    endloop
  endfacet
  facet normal 0 0 -1
    outer loop
      vertex -2.93444 0.623734 3.22
      vertex -3.91259 0.831646 3.22
      vertex -3.65418 1.62695 3.22
    endloop
  endfacet
  facet normal 0 0 -1
    outer loop
      vertex -3 0 3.22
      vertex -4 0 3.22
      vertex -3.91259 0.831646 3.22
    endloop
  endfacet
  facet normal 0.207909 -0.978148 0
    outer loop
      vertex 0.418114 -3.97809 3.22
      vertex 1.23607 -3.80423 6.22
      vertex 0.418114 -3.97809 6.22
    endloop
  endfacet
  facet normal 0.207909 -0.978148 0
    outer loop
      vertex 1.23607 -3.80423 6.22
      vertex 0.418114 -3.97809 3.22
      vertex 1.23607 -3.80423 3.22
    endloop
  endfacet
  facet normal 0.866026 -0.499999 0
    outer loop
      vertex 3.23607 -2.35114 6.22
      vertex 3.65418 -1.62695 3.22
      vertex 3.65418 -1.62695 6.22
    endloop
  endfacet
  facet normal 0.866026 -0.499999 0
    outer loop
      vertex 3.65418 -1.62695 3.22
      vertex 3.23607 -2.35114 6.22
      vertex 3.23607 -2.35114 3.22
    endloop
  endfacet
  facet normal -0.866026 -0.499999 0
    outer loop
      vertex -3.23607 -2.35114 3.22
      vertex -3.65418 -1.62695 6.22
      vertex -3.65418 -1.62695 3.22
    endloop
  endfacet
  facet normal -0.866026 -0.499999 0
    outer loop
      vertex -3.65418 -1.62695 6.22
      vertex -3.23607 -2.35114 3.22
      vertex -3.23607 -2.35114 6.22
    endloop
  endfacet
  facet normal 0.587785 -0.809017 0
    outer loop
      vertex 2 -3.4641 3.22
      vertex 2.67652 -2.97258 6.22
      vertex 2 -3.4641 6.22
    endloop
  endfacet
  facet normal 0.587785 -0.809017 0
    outer loop
      vertex 2.67652 -2.97258 6.22
      vertex 2 -3.4641 3.22
      vertex 2.67652 -2.97258 3.22
    endloop
  endfacet
  facet normal 0.406743 -0.913543 0
    outer loop
      vertex 1.23607 -3.80423 3.22
      vertex 2 -3.4641 6.22
      vertex 1.23607 -3.80423 6.22
    endloop
  endfacet
  facet normal 0.406743 -0.913543 0
    outer loop
      vertex 2 -3.4641 6.22
      vertex 1.23607 -3.80423 3.22
      vertex 2 -3.4641 3.22
    endloop
  endfacet
  facet normal 0.951056 -0.309017 0
    outer loop
      vertex 3.65418 -1.62695 6.22
      vertex 3.91259 -0.831646 3.22
      vertex 3.91259 -0.831646 6.22
    endloop
  endfacet
  facet normal 0.951056 -0.309017 0
    outer loop
      vertex 3.91259 -0.831646 3.22
      vertex 3.65418 -1.62695 6.22
      vertex 3.65418 -1.62695 3.22
    endloop
  endfacet
  facet normal -0.743143 -0.669133 0
    outer loop
      vertex -2.67652 -2.97258 3.22
      vertex -3.23607 -2.35114 6.22
      vertex -3.23607 -2.35114 3.22
    endloop
  endfacet
  facet normal -0.743143 -0.669133 0
    outer loop
      vertex -3.23607 -2.35114 6.22
      vertex -2.67652 -2.97258 3.22
      vertex -2.67652 -2.97258 6.22
    endloop
  endfacet
  facet normal -0.951056 -0.309017 0
    outer loop
      vertex -3.65418 -1.62695 3.22
      vertex -3.91259 -0.831646 6.22
      vertex -3.91259 -0.831646 3.22
    endloop
  endfacet
  facet normal -0.951056 -0.309017 0
    outer loop
      vertex -3.91259 -0.831646 6.22
      vertex -3.65418 -1.62695 3.22
      vertex -3.65418 -1.62695 6.22
    endloop
  endfacet
  facet normal -0.994522 -0.104529 0
    outer loop
      vertex -3.91259 -0.831646 3.22
      vertex -4 0 6.22
      vertex -4 0 3.22
    endloop
  endfacet
  facet normal -0.994522 -0.104529 0
    outer loop
      vertex -4 0 6.22
      vertex -3.91259 -0.831646 3.22
      vertex -3.91259 -0.831646 6.22
    endloop
  endfacet
  facet normal 0.743143 -0.669133 0
    outer loop
      vertex 2.67652 -2.97258 6.22
      vertex 3.23607 -2.35114 3.22
      vertex 3.23607 -2.35114 6.22
    endloop
  endfacet
  facet normal 0.743143 -0.669133 0
    outer loop
      vertex 3.23607 -2.35114 3.22
      vertex 2.67652 -2.97258 6.22
      vertex 2.67652 -2.97258 3.22
    endloop
  endfacet
  facet normal -0.406743 -0.913543 0
    outer loop
      vertex -2 -3.4641 3.22
      vertex -1.23607 -3.80423 6.22
      vertex -2 -3.4641 6.22
    endloop
  endfacet
  facet normal -0.406743 -0.913543 -0
    outer loop
      vertex -1.23607 -3.80423 6.22
      vertex -2 -3.4641 3.22
      vertex -1.23607 -3.80423 3.22
    endloop
  endfacet
  facet normal -0.587785 -0.809017 0
    outer loop
      vertex -2.67652 -2.97258 3.22
      vertex -2 -3.4641 6.22
      vertex -2.67652 -2.97258 6.22
    endloop
  endfacet
  facet normal -0.587785 -0.809017 -0
    outer loop
      vertex -2 -3.4641 6.22
      vertex -2.67652 -2.97258 3.22
      vertex -2 -3.4641 3.22
    endloop
  endfacet
  facet normal -0.207909 -0.978148 0
    outer loop
      vertex -1.23607 -3.80423 3.22
      vertex -0.418114 -3.97809 6.22
      vertex -1.23607 -3.80423 6.22
    endloop
  endfacet
  facet normal -0.207909 -0.978148 -0
    outer loop
      vertex -0.418114 -3.97809 6.22
      vertex -1.23607 -3.80423 3.22
      vertex -0.418114 -3.97809 3.22
    endloop
  endfacet
  facet normal -0.987689 -0.156429 0
    outer loop
      vertex 0.599999 0 0
      vertex 0.570634 0.18541 6.22
      vertex 0.570634 0.18541 0
    endloop
  endfacet
  facet normal -0.987689 -0.156429 0
    outer loop
      vertex 0.570634 0.18541 6.22
      vertex 0.599999 0 0
      vertex 0.599999 0 6.22
    endloop
  endfacet
  facet normal 0.987689 -0.156429 0
    outer loop
      vertex -0.599999 0 6.22
      vertex -0.570634 0.18541 0
      vertex -0.570634 0.18541 6.22
    endloop
  endfacet
  facet normal 0.987689 -0.156429 0
    outer loop
      vertex -0.570634 0.18541 0
      vertex -0.599999 0 6.22
      vertex -0.599999 0 0
    endloop
  endfacet
  facet normal 0.156429 -0.987689 0
    outer loop
      vertex -0.18541 0.570634 0
      vertex 0 0.599999 6.22
      vertex -0.18541 0.570634 6.22
    endloop
  endfacet
  facet normal 0.156429 -0.987689 0
    outer loop
      vertex 0 0.599999 6.22
      vertex -0.18541 0.570634 0
      vertex 0 0.599999 0
    endloop
  endfacet
  facet normal -0.156429 0.987689 0
    outer loop
      vertex 0.18541 -0.570634 0
      vertex 0 -0.599999 6.22
      vertex 0.18541 -0.570634 6.22
    endloop
  endfacet
  facet normal -0.156429 0.987689 0
    outer loop
      vertex 0 -0.599999 6.22
      vertex 0.18541 -0.570634 0
      vertex 0 -0.599999 0
    endloop
  endfacet
  facet normal -0.453992 0.891006 0
    outer loop
      vertex 0.352671 -0.48541 0
      vertex 0.18541 -0.570634 6.22
      vertex 0.352671 -0.48541 6.22
    endloop
  endfacet
  facet normal -0.453992 0.891006 0
    outer loop
      vertex 0.18541 -0.570634 6.22
      vertex 0.352671 -0.48541 0
      vertex 0.18541 -0.570634 0
    endloop
  endfacet
  facet normal -0.453992 -0.891006 0
    outer loop
      vertex 0.18541 0.570634 0
      vertex 0.352671 0.48541 6.22
      vertex 0.18541 0.570634 6.22
    endloop
  endfacet
  facet normal -0.453992 -0.891006 -0
    outer loop
      vertex 0.352671 0.48541 6.22
      vertex 0.18541 0.570634 0
      vertex 0.352671 0.48541 0
    endloop
  endfacet
  facet normal -0.891006 -0.453992 0
    outer loop
      vertex 0.570634 0.18541 0
      vertex 0.48541 0.352671 6.22
      vertex 0.48541 0.352671 0
    endloop
  endfacet
  facet normal -0.891006 -0.453992 0
    outer loop
      vertex 0.48541 0.352671 6.22
      vertex 0.570634 0.18541 0
      vertex 0.570634 0.18541 6.22
    endloop
  endfacet
  facet normal -0.156429 -0.987689 0
    outer loop
      vertex 0 0.599999 0
      vertex 0.18541 0.570634 6.22
      vertex 0 0.599999 6.22
    endloop
  endfacet
  facet normal -0.156429 -0.987689 -0
    outer loop
      vertex 0.18541 0.570634 6.22
      vertex 0 0.599999 0
      vertex 0.18541 0.570634 0
    endloop
  endfacet
  facet normal 0.707107 -0.707107 0
    outer loop
      vertex -0.48541 0.352671 6.22
      vertex -0.352671 0.48541 0
      vertex -0.352671 0.48541 6.22
    endloop
  endfacet
  facet normal 0.707107 -0.707107 0
    outer loop
      vertex -0.352671 0.48541 0
      vertex -0.48541 0.352671 6.22
      vertex -0.48541 0.352671 0
    endloop
  endfacet
  facet normal 0.891006 -0.453992 0
    outer loop
      vertex -0.570634 0.18541 6.22
      vertex -0.48541 0.352671 0
      vertex -0.48541 0.352671 6.22
    endloop
  endfacet
  facet normal 0.891006 -0.453992 0
    outer loop
      vertex -0.48541 0.352671 0
      vertex -0.570634 0.18541 6.22
      vertex -0.570634 0.18541 0
    endloop
  endfacet
  facet normal 0.453992 -0.891006 0
    outer loop
      vertex -0.352671 0.48541 0
      vertex -0.18541 0.570634 6.22
      vertex -0.352671 0.48541 6.22
    endloop
  endfacet
  facet normal 0.453992 -0.891006 0
    outer loop
      vertex -0.18541 0.570634 6.22
      vertex -0.352671 0.48541 0
      vertex -0.18541 0.570634 0
    endloop
  endfacet
  facet normal -0.987689 0.156429 0
    outer loop
      vertex 0.570634 -0.18541 0
      vertex 0.599999 0 6.22
      vertex 0.599999 0 0
    endloop
  endfacet
  facet normal -0.987689 0.156429 0
    outer loop
      vertex 0.599999 0 6.22
      vertex 0.570634 -0.18541 0
      vertex 0.570634 -0.18541 6.22
    endloop
  endfacet
  facet normal -0.707107 -0.707107 0
    outer loop
      vertex 0.48541 0.352671 0
      vertex 0.352671 0.48541 6.22
      vertex 0.352671 0.48541 0
    endloop
  endfacet
  facet normal -0.707107 -0.707107 0
    outer loop
      vertex 0.352671 0.48541 6.22
      vertex 0.48541 0.352671 0
      vertex 0.48541 0.352671 6.22
    endloop
  endfacet
  facet normal -0.707107 0.707107 0
    outer loop
      vertex 0.352671 -0.48541 0
      vertex 0.48541 -0.352671 6.22
      vertex 0.48541 -0.352671 0
    endloop
  endfacet
  facet normal -0.707107 0.707107 0
    outer loop
      vertex 0.48541 -0.352671 6.22
      vertex 0.352671 -0.48541 0
      vertex 0.352671 -0.48541 6.22
    endloop
  endfacet
  facet normal 0.891006 0.453992 0
    outer loop
      vertex -0.48541 -0.352671 6.22
      vertex -0.570634 -0.18541 0
      vertex -0.570634 -0.18541 6.22
    endloop
  endfacet
  facet normal 0.891006 0.453992 0
    outer loop
      vertex -0.570634 -0.18541 0
      vertex -0.48541 -0.352671 6.22
      vertex -0.48541 -0.352671 0
    endloop
  endfacet
  facet normal 0.987689 0.156429 0
    outer loop
      vertex -0.570634 -0.18541 6.22
      vertex -0.599999 0 0
      vertex -0.599999 0 6.22
    endloop
  endfacet
  facet normal 0.987689 0.156429 0
    outer loop
      vertex -0.599999 0 0
      vertex -0.570634 -0.18541 6.22
      vertex -0.570634 -0.18541 0
    endloop
  endfacet
  facet normal -0.891006 0.453992 0
    outer loop
      vertex 0.48541 -0.352671 0
      vertex 0.570634 -0.18541 6.22
      vertex 0.570634 -0.18541 0
    endloop
  endfacet
  facet normal -0.891006 0.453992 0
    outer loop
      vertex 0.570634 -0.18541 6.22
      vertex 0.48541 -0.352671 0
      vertex 0.48541 -0.352671 6.22
    endloop
  endfacet
  facet normal 0.156429 0.987689 -0
    outer loop
      vertex 0 -0.599999 0
      vertex -0.18541 -0.570634 6.22
      vertex 0 -0.599999 6.22
    endloop
  endfacet
  facet normal 0.156429 0.987689 0
    outer loop
      vertex -0.18541 -0.570634 6.22
      vertex 0 -0.599999 0
      vertex -0.18541 -0.570634 0
    endloop
  endfacet
  facet normal 0.707107 0.707107 0
    outer loop
      vertex -0.352671 -0.48541 6.22
      vertex -0.48541 -0.352671 0
      vertex -0.48541 -0.352671 6.22
    endloop
  endfacet
  facet normal 0.707107 0.707107 0
    outer loop
      vertex -0.48541 -0.352671 0
      vertex -0.352671 -0.48541 6.22
      vertex -0.352671 -0.48541 0
    endloop
  endfacet
  facet normal 0.453992 0.891006 -0
    outer loop
      vertex -0.18541 -0.570634 0
      vertex -0.352671 -0.48541 6.22
      vertex -0.18541 -0.570634 6.22
    endloop
  endfacet
  facet normal 0.453992 0.891006 0
    outer loop
      vertex -0.352671 -0.48541 6.22
      vertex -0.18541 -0.570634 0
      vertex -0.352671 -0.48541 0
    endloop
  endfacet
  facet normal -1 0 0
    outer loop
      vertex -1 3.8544 3.72
      vertex -1 16 4.72
      vertex -1 16 3.72
    endloop
  endfacet
  facet normal -1 -0 0
    outer loop
      vertex -1 16 4.72
      vertex -1 3.8544 3.72
      vertex -1 3.8544 4.72
    endloop
  endfacet
  facet normal 0 0 1
    outer loop
      vertex 1 16 4.72
      vertex 0.418114 3.97809 4.72
      vertex 1 3.8544 4.72
    endloop
  endfacet
  facet normal 0 0 1
    outer loop
      vertex -1 16 4.72
      vertex 1 16 4.72
      vertex 0 17.732 4.72
    endloop
  endfacet
  facet normal 0 0 1
    outer loop
      vertex 1 16 4.72
      vertex -1 16 4.72
      vertex 0.418114 3.97809 4.72
    endloop
  endfacet
  facet normal 0 0 1
    outer loop
      vertex 0.418114 3.97809 4.72
      vertex -1 16 4.72
      vertex -0.418114 3.97809 4.72
    endloop
  endfacet
  facet normal 0 0 1
    outer loop
      vertex -0.418114 3.97809 4.72
      vertex -1 16 4.72
      vertex -1 3.8544 4.72
    endloop
  endfacet
  facet normal 1 -0 0
    outer loop
      vertex 1 3.8544 4.72
      vertex 1 16 3.72
      vertex 1 16 4.72
    endloop
  endfacet
  facet normal 1 0 0
    outer loop
      vertex 1 16 3.72
      vertex 1 3.8544 4.72
      vertex 1 3.8544 3.72
    endloop
  endfacet
  facet normal 0 0 -1
    outer loop
      vertex 0.418114 3.97809 3.72
      vertex 1 16 3.72
      vertex 1 3.8544 3.72
    endloop
  endfacet
  facet normal 0 0 -1
    outer loop
      vertex -1 16 3.72
      vertex 1 16 3.72
      vertex 0.418114 3.97809 3.72
    endloop
  endfacet
  facet normal 0 0 -1
    outer loop
      vertex -1 16 3.72
      vertex 0.418114 3.97809 3.72
      vertex -0.418114 3.97809 3.72
    endloop
  endfacet
  facet normal 0 0 -1
    outer loop
      vertex -1 16 3.72
      vertex -0.418114 3.97809 3.72
      vertex -1 3.8544 3.72
    endloop
  endfacet
  facet normal 0 0 -1
    outer loop
      vertex 1 16 3.72
      vertex -1 16 3.72
      vertex 0 17.732 3.72
    endloop
  endfacet
  facet normal 0.866019 0.500011 0
    outer loop
      vertex 1 16 4.72
      vertex 0 17.732 3.72
      vertex 0 17.732 4.72
    endloop
  endfacet
  facet normal 0.866019 0.500011 0
    outer loop
      vertex 0 17.732 3.72
      vertex 1 16 4.72
      vertex 1 16 3.72
    endloop
  endfacet
  facet normal -0.866019 0.500011 0
    outer loop
      vertex -1 16 3.72
      vertex 0 17.732 4.72
      vertex 0 17.732 3.72
    endloop
  endfacet
  facet normal -0.866019 0.500011 0
    outer loop
      vertex 0 17.732 4.72
      vertex -1 16 3.72
      vertex -1 16 4.72
    endloop
  endfacet
endsolid OpenSCAD_Model
